[
    { 
      "accountStatus": "Under Administration",
      "assetQuantity": "N/A",
      "assetType": "Cash",
      "charityCity": "OKLAHOMA CITY",
      "charityEIN": "13-1788491",
      "charityID": "2921958", 
      "charityName": "American Cancer Society, Inc.",
      "charityState": "OKLAHOMA",
      "charityStateAbb": "OK",
      "charityStreetAddress": "8400 SILVER XING",
      "charityZip": "731323379",
      "checkNumber": "1331671945",
      "contribution": "5000.11",  
      "contributionStatus1": "Receivable",
      "contributionStatus2": "Pending Asset Receipt",
      "contributionStatus3": "Asset Received",
      "contributor": "Mr. Donald Jasper", 
      "contributorCity": "Hinsdale",
      "contributorState": "IL",
      "contributorStreetAddress": "1234 Home Avenue",
      "contributorZip": "60521",
      "deliveryMethod": "Mail",
      "distributionMethod": "-",
      "fileNumber": "454746",
      "fundCode": "JASPER2",
      "fundFunded": "3/23/2012",
      "fundID": "40883",
      "fundIDHidden": "********",
      "fundName": "Jasper Family Charitable Fund", 
      "fundSubType": "Scholarship Fund",
      "fundType": "Endowment Fund",
      "grantAcknowledgementType": "Fund Name Only",
      "grantAmount": "250.11", 
      "grantPurpose": "Unrestricted - Please use as needed",
      "grantStatus": "Charity Vetting Pending",
      "grantStatus2": "In Progress",
      "grantTiming": "Process Immediately",
      "grantType": "Grant",
      "includeFundName": "Yes",
      "locked": "false",
      "missionStatement": "-",
      "nameOfFund": "Y",
      "note": "A New Note...",
      "npo": "501(c)(3) Public Charity",
      "ntee": "P20 - Human Service Organizations",
      "ofacOrganization": "N",
      "organization509a3": "N",
      "program": "Oak Foundation Giving Fund",
      "pub78Verified": "Y",
      "shippingMethod": "Standard",
      "statementDisplay": "This is a test statement upload",
      "statementFile": "Test Statement-Monthly TM.pdf",
      "statementFundCode": "WAYNE3",
      "statementFundID": "********",
      "statementStatus": "Released"
}
]