[
    { 
      "accountStatus": "Under Administration",
      "assetQuantity": "N/A",
      "assetType": "Cash",
      "charityCity": "Atlanta",
      "charityEIN": "13-1788491",
      "charityID": "373911", 
      "charityName": "American Cancer Society, Inc.",
      "charityState": "Georgia",
      "charityStateAbb": "GA",
      "charityStreetAddress": "250 Williams Street NW",
      "charityZip": "30303",
      "checkNumber": "-1796891199",
      "contribution": "5000.11",  
      "contributionStatus1": "Receivable",
      "contributionStatus2": "Pending Asset Receipt",
      "contributionStatus3": "Asset Received",
      "contributor": "Mr. Donald Jasper", 
      "contributorCity": "Hinsdale",
      "contributorState": "IL",
      "contributorStreetAddress": "1234 Home Avenue",
      "contributorZip": "60521",
      "deliveryMethod": "Mail",
      "distributionMethod": "CHECK",
      "fileNumber": "10943",
      "fundCode": "JASPER2",
      "fundFunded": "3/23/2012",
      "fundID": "40883",
      "fundName": "Jasper Family Charitable Fund", 
      "fundSubType": "Scholarship Fund",
      "fundType": "Endowment Fund",
      "grantAmount": "250.11", 
      "grantPurpose": "Unrestricted",
      "grantStatus": "Grant Due Diligence Pending",
      "grantTiming": "One time grant",
      "grantType": "Grant",
      "locked": "false",
      "missionStatement": "-",
      "nameOfFund": "Y",
      "note": "A New Note...",
      "npo": "501(c)(3) Public Charity",
      "ntee": "G30 - Cancer",
      "ofacOrganization": "N",
      "organization509a3": "N",
      "program": "Oak Foundation Giving Fund",
      "pub78Verified": "Y",
      "statementDisplay": "2016-January -  - SKYWAL1",
      "statementFile": "2016-01 - SKYWAL1 (2).pdf",
      "statementFundCode": "SKYWAL1",
      "statementFundID": "26193",
      "statementStatus": "Released"
}
]